{
  "object": [
    {
      "date": "1569390582737",
      "movie": [
        {
          "name": "为国而歌",
          "type": null,
          "show": null,
          "posterUrl": "https://gw.alicdn.com/i4/TB1SnjMfFP7gK0jSZFjXXc5aXXa_.jpg_160x160Q30s100.jpg_.webp",
          "expectationNum": 2080,
          "director": ["青山"],
          "actor": ["王雷", "古力娜扎", "海一天"]
        },
        {
          "name": "妈妈我爱你",
          "type": null,
          "show": null,
          "posterUrl": "https://gw.alicdn.com/i4/TB1Bky1gq67gK0jSZFHXXa9jVXa_.jpg_160x160Q30s100.jpg_.webp",
          "expectationNum": 477,
          "director": [],
          "actor": ["胡子枚", "任青安"]
        }
      ]
    },
    {
      "date": "1569390582737",
      "movie": [
        {
          "name": "江南",
          "type": null,
          "show": null,
          "posterUrl": "https://gw.alicdn.com/i2/TB1MZI5e25G3KVjSZPxXXbI3XXa_.jpg_160x160Q30s100.jpg_.webp",
          "expectationNum": 5407,
          "director": ["吴晓刚"],
          "actor": ["李杨", "周野芒", "马洋"]
        },
        {
          "name": "达道里",
          "type": null,
          "show": null,
          "posterUrl": "https://gw.alicdn.com/i3/TB11XHsgeH2gK0jSZJnXXaT1FXa_.jpg_160x160Q30s100.jpg_.webp",
          "expectationNum": 290,
          "director": ["王不"],
          "actor": ["辛鹏", "刘一莹", "昌隆"]
        }
      ]
    },
    {
      "date": "1569390582737",
      "movie": [
        {
          "name": "向阳花又开",
          "type": null,
          "show": null,
          "posterUrl": "https://gw.alicdn.com/i1/TB1cjp2geH2gK0jSZJnXXaT1FXa_.jpg_160x160Q30s100.jpg_.webp",
          "expectationNum": 97,
          "director": ["马义林"],
          "actor": ["左新郎", "张芳"]
        }
      ]
    },
    {
      "date": "1569390582737",
      "movie": [
        {
          "name": "攀登者",
          "type": null,
          "show": null,
          "posterUrl": "https://gw.alicdn.com/i2/TB1yyzHe3mH3KVjSZKzXXb2OXXa_.jpg_160x160Q30s100.jpg_.webp",
          "expectationNum": 1055000,
          "director": ["李仁港"],
          "actor": ["吴京", "章子怡", "张译", "井柏然"]
        },
        {
          "name": "中国机长",
          "type": null,
          "show": null,
          "posterUrl": "https://gw.alicdn.com/i1/TB1mDwbgpT7gK0jSZFpXXaTkpXa_.jpg_160x160Q30s100.jpg_.webp",
          "expectationNum": 738000,
          "director": ["刘伟强"],
          "actor": ["张涵予", "欧豪", "杜江", "袁泉"]
        },
        {
          "name": "我和我的祖国",
          "type": null,
          "show": null,
          "posterUrl": "https://gw.alicdn.com/i4/TB1gmPigaL7gK0jSZFBXXXZZpXa_.jpg_160x160Q30s100.jpg_.webp",
          "expectationNum": 722000,
          "director": ["陈凯歌", "张一白", "管虎"],
          "actor": ["黄渤", "张译", "吴京", "马伊琍"]
        }
      ]
    }
  ],
  "page": {
    "currentPage": 0,
    "hasNextPage": false,
    "hasPreviousPage": false,
    "totalPages": 2,
    "totalRecords": 20
  },
  "code": 1
}
